%YAML 1.1
%TAG !u! tag:unity3d.com,2011:
--- !u!1045 &1
EditorBuildSettings:
  m_ObjectHideFlags: 0
  serializedVersion: 2
  m_Scenes:
  - enabled: 1
    path: Assets/startup.unity
    guid: 9e2ed43ea85609e4ea62360ec080417a
  - enabled: 1
    path: Assets/altar.unity
    guid: aa434b94ec5788142b3919a0687046e3
  - enabled: 1
    path: Assets/stats.unity
    guid: dea3abe63c25a5e4fa1b94be38cc9183
  m_configObjects: {}
